PRACTICA 1
…
Se agrupa la variable CIVIL a la tabla anterior

credito_v1 %>% 
  group_by(CLASE,NUM_FAMILIA,CIVIL) %>%
  summarise(ESFUERZO_ECON = (mean(IMPCUOTA) / (mean(INGRESOS)/12)*100))

## `summarise()` has grouped output by 'CLASE', 'NUM_FAMILIA'. You can override using the `.groups` argument.

## # A tibble: 28 x 4
## # Groups:   CLASE, NUM_FAMILIA [12]
##    CLASE NUM_FAMILIA CIVIL    ESFUERZO_ECON
##    <fct>       <dbl> <fct>            <dbl>
##  1 NO              1 Casado           25.3 
##  2 NO              1 Separado          3.25
##  3 NO              1 Soltero          12.7 
##  4 NO              2 Casado            9.28
##  5 NO              2 Separado          7.71
##  6 NO              2 Soltero          15.7 
##  7 NO              3 Casado            9.93
##  8 NO              3 Separado         11.5 
##  9 NO              3 Soltero          10.0 
## 10 NO              4 Casado           13.8 
## # ... with 18 more rows

Se aplica un filtro sobre los ingresos, para contemplar nicamente las observaciones de las familias que ingresan menos de 18000 euros anuales.

credito_v1 %>% 
  filter(INGRESOS<18000) %>%
  group_by(CLASE, NUM_FAMILIA,CIVIL) %>% 
  summarise(ESFUERZO_ECON = (mean(IMPCUOTA) / (mean(INGRESOS)/12)*100))

## `summarise()` has grouped output by 'CLASE', 'NUM_FAMILIA'. You can override using the `.groups` argument.

## # A tibble: 27 x 4
## # Groups:   CLASE, NUM_FAMILIA [12]
##    CLASE NUM_FAMILIA CIVIL    ESFUERZO_ECON
##    <fct>       <dbl> <fct>            <dbl>
##  1 NO              1 Casado           25.3 
##  2 NO              1 Soltero          14.1 
##  3 NO              2 Casado           18.3 
##  4 NO              2 Separado         10.1 
##  5 NO              2 Soltero          15.7 
##  6 NO              3 Casado           12.4 
##  7 NO              3 Separado         13.8 
##  8 NO              3 Soltero          12.1 
##  9 NO              4 Casado           15.5 
## 10 NO              4 Soltero           8.37
## # ... with 17 more rows
…
